{
	"info": {
		"_postman_id": "78ad05d9-0db2-4768-aad6-cd1de65b6571",
		"name": "School system",
		"schema": "https://schema.getpostman.com/json/collection/v2.1.0/collection.json"
	},
	"item": [
		{
			"name": "dockerized",
			"item": [
				{
					"name": "Course",
					"item": [
						{
							"name": "Errors",
							"item": [
								{
									"name": "GET course/{inexistent_id}",
									"request": {
										"method": "GET",
										"header": [],
										"url": {
											"raw": "localhost:6868/api/course/666",
											"host": [
												"localhost"
											],
											"port": "6868",
											"path": [
												"api",
												"course",
												"666"
											]
										}
									},
									"response": []
								},
								{
									"name": "GET /course/{inexisteng_id}/students",
									"request": {
										"method": "GET",
										"header": [],
										"url": {
											"raw": "localhost:6868/api/course/666/students",
											"host": [
												"localhost"
											],
											"port": "6868",
											"path": [
												"api",
												"course",
												"666",
												"students"
											]
										}
									},
									"response": []
								},
								{
									"name": "GET course invalid id",
									"request": {
										"method": "GET",
										"header": [],
										"url": {
											"raw": "localhost:6868/api/course/aaa",
											"host": [
												"localhost"
											],
											"port": "6868",
											"path": [
												"api",
												"course",
												"aaa"
											]
										}
									},
									"response": []
								},
								{
									"name": "POST course - missing name",
									"request": {
										"method": "POST",
										"header": [],
										"body": {
											"mode": "raw",
											"raw": "{\n \n}",
											"options": {
												"raw": {
													"language": "json"
												}
											}
										},
										"url": {
											"raw": "localhost:6868/api/course",
											"host": [
												"localhost"
											],
											"port": "6868",
											"path": [
												"api",
												"course"
											]
										}
									},
									"response": []
								},
								{
									"name": "POST course - without body",
									"request": {
										"method": "POST",
										"header": [],
										"body": {
											"mode": "raw",
											"raw": "",
											"options": {
												"raw": {
													"language": "json"
												}
											}
										},
										"url": {
											"raw": "localhost:6868/api/course",
											"host": [
												"localhost"
											],
											"port": "6868",
											"path": [
												"api",
												"course"
											]
										}
									},
									"response": []
								},
								{
									"name": "POST course - invalid name",
									"request": {
										"method": "POST",
										"header": [],
										"body": {
											"mode": "raw",
											"raw": "{\n    \"name\": 1a\n}",
											"options": {
												"raw": {
													"language": "json"
												}
											}
										},
										"url": {
											"raw": "localhost:6868/api/course",
											"host": [
												"localhost"
											],
											"port": "6868",
											"path": [
												"api",
												"course"
											]
										}
									},
									"response": []
								},
								{
									"name": "PUT course/{inexistent_id}",
									"request": {
										"method": "PUT",
										"header": [],
										"body": {
											"mode": "raw",
											"raw": "{ \n    \"name\": \"updated name\"\n}",
											"options": {
												"raw": {
													"language": "json"
												}
											}
										},
										"url": {
											"raw": "localhost:6868/api/course/666",
											"host": [
												"localhost"
											],
											"port": "6868",
											"path": [
												"api",
												"course",
												"666"
											]
										}
									},
									"response": []
								},
								{
									"name": "DELETE course/{inexistent_id}",
									"request": {
										"method": "DELETE",
										"header": [],
										"url": {
											"raw": "localhost:6868/api/course/666",
											"host": [
												"localhost"
											],
											"port": "6868",
											"path": [
												"api",
												"course",
												"666"
											]
										}
									},
									"response": []
								}
							]
						},
						{
							"name": "GET courses",
							"request": {
								"method": "GET",
								"header": [],
								"url": {
									"raw": "localhost:6868/api/courses",
									"host": [
										"localhost"
									],
									"port": "6868",
									"path": [
										"api",
										"courses"
									]
								}
							},
							"response": []
						},
						{
							"name": "GET courses/withoutStudents",
							"request": {
								"method": "GET",
								"header": [],
								"url": {
									"raw": "localhost:6868/api/courses/withoutStudents",
									"host": [
										"localhost"
									],
									"port": "6868",
									"path": [
										"api",
										"courses",
										"withoutStudents"
									]
								}
							},
							"response": []
						},
						{
							"name": "GET course/{id}",
							"request": {
								"method": "GET",
								"header": [],
								"url": {
									"raw": "localhost:6868/api/course/61",
									"host": [
										"localhost"
									],
									"port": "6868",
									"path": [
										"api",
										"course",
										"61"
									]
								}
							},
							"response": []
						},
						{
							"name": "GET course/{id}/students",
							"request": {
								"method": "GET",
								"header": [],
								"url": {
									"raw": "localhost:6868/api/course/34/students",
									"host": [
										"localhost"
									],
									"port": "6868",
									"path": [
										"api",
										"course",
										"34",
										"students"
									]
								}
							},
							"response": []
						},
						{
							"name": "POST course",
							"request": {
								"method": "POST",
								"header": [],
								"body": {
									"mode": "raw",
									"raw": "{\n    \"name\": \"Brand new course\"\n}",
									"options": {
										"raw": {
											"language": "json"
										}
									}
								},
								"url": {
									"raw": "localhost:6868/api/course",
									"host": [
										"localhost"
									],
									"port": "6868",
									"path": [
										"api",
										"course"
									]
								}
							},
							"response": []
						},
						{
							"name": "PUT course/{id}",
							"request": {
								"method": "PUT",
								"header": [],
								"body": {
									"mode": "raw",
									"raw": "{\n    \"name\": \"Brand new course by Tiago Melo\"\n}",
									"options": {
										"raw": {
											"language": "json"
										}
									}
								},
								"url": {
									"raw": "localhost:6868/api/course/61",
									"host": [
										"localhost"
									],
									"port": "6868",
									"path": [
										"api",
										"course",
										"61"
									]
								}
							},
							"response": []
						},
						{
							"name": "PUT student/59/courses - \"ACE\" course, limit of 2 total students",
							"request": {
								"method": "PUT",
								"header": [],
								"body": {
									"mode": "raw",
									"raw": "{\n    \"courses\": [\n        \"ACE\"\n    ]\n}",
									"options": {
										"raw": {
											"language": "json"
										}
									}
								},
								"url": {
									"raw": "localhost:6868/api/student/59/courses",
									"host": [
										"localhost"
									],
									"port": "6868",
									"path": [
										"api",
										"student",
										"59",
										"courses"
									]
								}
							},
							"response": []
						},
						{
							"name": "PUT student/60/courses - \"ACE\" course, limit of 2 total students",
							"request": {
								"method": "PUT",
								"header": [],
								"body": {
									"mode": "raw",
									"raw": "{\n    \"courses\": [\n        \"ACE\"\n    ]\n}",
									"options": {
										"raw": {
											"language": "json"
										}
									}
								},
								"url": {
									"raw": "localhost:6868/api/student/60/courses",
									"host": [
										"localhost"
									],
									"port": "6868",
									"path": [
										"api",
										"student",
										"60",
										"courses"
									]
								}
							},
							"response": []
						},
						{
							"name": "PUT student/58/courses - \"ACE\" course, limit of 2 total students",
							"request": {
								"method": "PUT",
								"header": [],
								"body": {
									"mode": "raw",
									"raw": "{\n    \"courses\": [\n        \"ACE\"\n    ]\n}",
									"options": {
										"raw": {
											"language": "json"
										}
									}
								},
								"url": {
									"raw": "localhost:6868/api/student/58/courses",
									"host": [
										"localhost"
									],
									"port": "6868",
									"path": [
										"api",
										"student",
										"58",
										"courses"
									]
								}
							},
							"response": []
						},
						{
							"name": "DELETE course{id}",
							"request": {
								"method": "DELETE",
								"header": [],
								"url": {
									"raw": "localhost:6868/api/course/61",
									"host": [
										"localhost"
									],
									"port": "6868",
									"path": [
										"api",
										"course",
										"61"
									]
								}
							},
							"response": []
						}
					]
				},
				{
					"name": "Student",
					"item": [
						{
							"name": "Errors",
							"item": [
								{
									"name": "GET student/{inexistent_id}",
									"request": {
										"method": "GET",
										"header": [],
										"url": {
											"raw": "localhost:6868/api/student/666",
											"host": [
												"localhost"
											],
											"port": "6868",
											"path": [
												"api",
												"student",
												"666"
											]
										}
									},
									"response": []
								},
								{
									"name": "GET student/{inexistent_id}/courses",
									"request": {
										"method": "GET",
										"header": [],
										"url": {
											"raw": "localhost:6868/api/student/666/courses",
											"host": [
												"localhost"
											],
											"port": "6868",
											"path": [
												"api",
												"student",
												"666",
												"courses"
											]
										}
									},
									"response": []
								},
								{
									"name": "GET student invalid id Copy",
									"request": {
										"method": "GET",
										"header": [],
										"url": {
											"raw": "localhost:6868/api/student/aaa",
											"host": [
												"localhost"
											],
											"port": "6868",
											"path": [
												"api",
												"student",
												"aaa"
											]
										}
									},
									"response": []
								},
								{
									"name": "POST student - missing name",
									"request": {
										"method": "POST",
										"header": [],
										"body": {
											"mode": "raw",
											"raw": "{\n    \"email\": \"some@email.com\"\n}",
											"options": {
												"raw": {
													"language": "json"
												}
											}
										},
										"url": {
											"raw": "localhost:6868/api/student",
											"host": [
												"localhost"
											],
											"port": "6868",
											"path": [
												"api",
												"student"
											]
										}
									},
									"response": []
								},
								{
									"name": "POST student - missing email",
									"request": {
										"method": "POST",
										"header": [],
										"body": {
											"mode": "raw",
											"raw": "{\n    \"name\": \"some name\"\n}",
											"options": {
												"raw": {
													"language": "json"
												}
											}
										},
										"url": {
											"raw": "localhost:6868/api/student",
											"host": [
												"localhost"
											],
											"port": "6868",
											"path": [
												"api",
												"student"
											]
										}
									},
									"response": []
								},
								{
									"name": "POST student - invalid email",
									"request": {
										"method": "POST",
										"header": [],
										"body": {
											"mode": "raw",
											"raw": "{\n    \"name\": \"some name\",\n    \"email\": \"bla\"\n}",
											"options": {
												"raw": {
													"language": "json"
												}
											}
										},
										"url": {
											"raw": "localhost:6868/api/student",
											"host": [
												"localhost"
											],
											"port": "6868",
											"path": [
												"api",
												"student"
											]
										}
									},
									"response": []
								},
								{
									"name": "POST student - without body",
									"request": {
										"method": "POST",
										"header": [],
										"body": {
											"mode": "raw",
											"raw": "",
											"options": {
												"raw": {
													"language": "json"
												}
											}
										},
										"url": {
											"raw": "localhost:6868/api/student",
											"host": [
												"localhost"
											],
											"port": "6868",
											"path": [
												"api",
												"student"
											]
										}
									},
									"response": []
								},
								{
									"name": "PUT student/{inexistent_id}",
									"request": {
										"method": "PUT",
										"header": [],
										"body": {
											"mode": "raw",
											"raw": "{ \n    \"name\": \"updated name\",\n    \"email\": \"email@email.com\"\n}",
											"options": {
												"raw": {
													"language": "json"
												}
											}
										},
										"url": {
											"raw": "localhost:6868/api/student/666",
											"host": [
												"localhost"
											],
											"port": "6868",
											"path": [
												"api",
												"student",
												"666"
											]
										}
									},
									"response": []
								},
								{
									"name": "DELETE student/{inexistent_id}",
									"request": {
										"method": "DELETE",
										"header": [],
										"body": {
											"mode": "raw",
											"raw": "{ \n    \"name\": \"updated name\",\n    \"email\": \"email@email.com\"\n}",
											"options": {
												"raw": {
													"language": "json"
												}
											}
										},
										"url": {
											"raw": "localhost:6868/api/student/666",
											"host": [
												"localhost"
											],
											"port": "6868",
											"path": [
												"api",
												"student",
												"666"
											]
										}
									},
									"response": []
								}
							]
						},
						{
							"name": "GET students",
							"request": {
								"method": "GET",
								"header": [],
								"url": {
									"raw": "localhost:6868/api/students",
									"host": [
										"localhost"
									],
									"port": "6868",
									"path": [
										"api",
										"students"
									]
								}
							},
							"response": []
						},
						{
							"name": "GET student/{id}",
							"request": {
								"method": "GET",
								"header": [],
								"url": {
									"raw": "localhost:6868/api/student/60",
									"host": [
										"localhost"
									],
									"port": "6868",
									"path": [
										"api",
										"student",
										"60"
									]
								}
							},
							"response": []
						},
						{
							"name": "GET student/{id}/courses",
							"request": {
								"method": "GET",
								"header": [],
								"url": {
									"raw": "localhost:6868/api/student/60/courses",
									"host": [
										"localhost"
									],
									"port": "6868",
									"path": [
										"api",
										"student",
										"60",
										"courses"
									]
								}
							},
							"response": []
						},
						{
							"name": "GET students/notEnrolledToAnyCourse",
							"request": {
								"method": "GET",
								"header": [],
								"url": {
									"raw": "localhost:6868/api/students/notEnrolledToAnyCourse",
									"host": [
										"localhost"
									],
									"port": "6868",
									"path": [
										"api",
										"students",
										"notEnrolledToAnyCourse"
									]
								}
							},
							"response": []
						},
						{
							"name": "POST student",
							"request": {
								"method": "POST",
								"header": [],
								"body": {
									"mode": "raw",
									"raw": "{\n    \"name\": \"tiago\",\n    \"email\": \"tiago@email.com\"\n}",
									"options": {
										"raw": {
											"language": "json"
										}
									}
								},
								"url": {
									"raw": "localhost:6868/api/student",
									"host": [
										"localhost"
									],
									"port": "6868",
									"path": [
										"api",
										"student"
									]
								}
							},
							"response": []
						},
						{
							"name": "PUT student/{id}",
							"request": {
								"method": "PUT",
								"header": [],
								"body": {
									"mode": "raw",
									"raw": "{\n    \"email\": \"tiagoewemail@email.com\"\n}",
									"options": {
										"raw": {
											"language": "json"
										}
									}
								},
								"url": {
									"raw": "localhost:6868/api/student/61",
									"host": [
										"localhost"
									],
									"port": "6868",
									"path": [
										"api",
										"student",
										"61"
									]
								}
							},
							"response": []
						},
						{
							"name": "PUT student/{id}/courses",
							"request": {
								"method": "PUT",
								"header": [],
								"body": {
									"mode": "raw",
									"raw": "{\n    \"courses\": [\n        \"ACE\",\n        \"Academic Approach\",\n        \"Ask a Way\",\n        \"Constant Toppers\",\n        \"Edulocity\"\n    ]\n}",
									"options": {
										"raw": {
											"language": "json"
										}
									}
								},
								"url": {
									"raw": "localhost:6868/api/student/60/courses",
									"host": [
										"localhost"
									],
									"port": "6868",
									"path": [
										"api",
										"student",
										"60",
										"courses"
									]
								}
							},
							"response": []
						},
						{
							"name": "PUT student/{id}/courses - exceeding courses limit",
							"request": {
								"method": "PUT",
								"header": [],
								"body": {
									"mode": "raw",
									"raw": "{\n    \"courses\": [\n       \"We Love Tutors\"\n    ]\n}",
									"options": {
										"raw": {
											"language": "json"
										}
									}
								},
								"url": {
									"raw": "localhost:6868/api/student/60/courses",
									"host": [
										"localhost"
									],
									"port": "6868",
									"path": [
										"api",
										"student",
										"60",
										"courses"
									]
								}
							},
							"response": []
						},
						{
							"name": "DELETE student/{id}/courses",
							"request": {
								"method": "DELETE",
								"header": [],
								"body": {
									"mode": "raw",
									"raw": "{\n    \"courses\": [\n        \"Edulocity\"\n    ]\n}",
									"options": {
										"raw": {
											"language": "json"
										}
									}
								},
								"url": {
									"raw": "localhost:6868/api/student/60/courses",
									"host": [
										"localhost"
									],
									"port": "6868",
									"path": [
										"api",
										"student",
										"60",
										"courses"
									]
								}
							},
							"response": []
						},
						{
							"name": "DELETE student{id}",
							"request": {
								"method": "DELETE",
								"header": [],
								"url": {
									"raw": "localhost:6868/api/student/61",
									"host": [
										"localhost"
									],
									"port": "6868",
									"path": [
										"api",
										"student",
										"61"
									]
								}
							},
							"response": []
						}
					]
				}
			]
		},
		{
			"name": "non-dockerized",
			"item": [
				{
					"name": "Student",
					"item": [
						{
							"name": "Errors",
							"item": [
								{
									"name": "GET student/{inexistent_id}",
									"request": {
										"method": "GET",
										"header": [],
										"url": {
											"raw": "localhost:8080/api/student/666",
											"host": [
												"localhost"
											],
											"port": "8080",
											"path": [
												"api",
												"student",
												"666"
											]
										}
									},
									"response": []
								},
								{
									"name": "GET student/{inexistent_id}/courses",
									"request": {
										"method": "GET",
										"header": [],
										"url": {
											"raw": "localhost:8080/api/student/666/courses",
											"host": [
												"localhost"
											],
											"port": "8080",
											"path": [
												"api",
												"student",
												"666",
												"courses"
											]
										}
									},
									"response": []
								},
								{
									"name": "GET student invalid id Copy",
									"request": {
										"method": "GET",
										"header": [],
										"url": {
											"raw": "localhost:8080/api/student/aaa",
											"host": [
												"localhost"
											],
											"port": "8080",
											"path": [
												"api",
												"student",
												"aaa"
											]
										}
									},
									"response": []
								},
								{
									"name": "POST student - missing name",
									"request": {
										"method": "POST",
										"header": [],
										"body": {
											"mode": "raw",
											"raw": "{\n    \"email\": \"some@email.com\"\n}",
											"options": {
												"raw": {
													"language": "json"
												}
											}
										},
										"url": {
											"raw": "localhost:8080/api/student",
											"host": [
												"localhost"
											],
											"port": "8080",
											"path": [
												"api",
												"student"
											]
										}
									},
									"response": []
								},
								{
									"name": "POST student - missing email",
									"request": {
										"method": "POST",
										"header": [],
										"body": {
											"mode": "raw",
											"raw": "{\n    \"name\": \"some name\"\n}",
											"options": {
												"raw": {
													"language": "json"
												}
											}
										},
										"url": {
											"raw": "localhost:8080/api/student",
											"host": [
												"localhost"
											],
											"port": "8080",
											"path": [
												"api",
												"student"
											]
										}
									},
									"response": []
								},
								{
									"name": "POST student - invalid email",
									"request": {
										"method": "POST",
										"header": [],
										"body": {
											"mode": "raw",
											"raw": "{\n    \"name\": \"some name\",\n    \"email\": \"bla\"\n}",
											"options": {
												"raw": {
													"language": "json"
												}
											}
										},
										"url": {
											"raw": "localhost:8080/api/student",
											"host": [
												"localhost"
											],
											"port": "8080",
											"path": [
												"api",
												"student"
											]
										}
									},
									"response": []
								},
								{
									"name": "POST student - without body",
									"request": {
										"method": "POST",
										"header": [],
										"body": {
											"mode": "raw",
											"raw": "",
											"options": {
												"raw": {
													"language": "json"
												}
											}
										},
										"url": {
											"raw": "localhost:8080/api/student",
											"host": [
												"localhost"
											],
											"port": "8080",
											"path": [
												"api",
												"student"
											]
										}
									},
									"response": []
								},
								{
									"name": "PUT student/{inexistent_id}",
									"request": {
										"method": "PUT",
										"header": [],
										"body": {
											"mode": "raw",
											"raw": "{ \n    \"name\": \"updated name\",\n    \"email\": \"email@email.com\"\n}",
											"options": {
												"raw": {
													"language": "json"
												}
											}
										},
										"url": {
											"raw": "localhost:8080/api/student/666",
											"host": [
												"localhost"
											],
											"port": "8080",
											"path": [
												"api",
												"student",
												"666"
											]
										}
									},
									"response": []
								},
								{
									"name": "DELETE student/{inexistent_id}",
									"request": {
										"method": "DELETE",
										"header": [],
										"body": {
											"mode": "raw",
											"raw": "{ \n    \"name\": \"updated name\",\n    \"email\": \"email@email.com\"\n}",
											"options": {
												"raw": {
													"language": "json"
												}
											}
										},
										"url": {
											"raw": "localhost:8080/api/student/666",
											"host": [
												"localhost"
											],
											"port": "8080",
											"path": [
												"api",
												"student",
												"666"
											]
										}
									},
									"response": []
								}
							]
						},
						{
							"name": "GET students",
							"request": {
								"method": "GET",
								"header": [],
								"url": {
									"raw": "localhost:8080/api/students",
									"host": [
										"localhost"
									],
									"port": "8080",
									"path": [
										"api",
										"students"
									]
								}
							},
							"response": []
						},
						{
							"name": "GET student/{id}",
							"request": {
								"method": "GET",
								"header": [],
								"url": {
									"raw": "localhost:8080/api/student/60",
									"host": [
										"localhost"
									],
									"port": "8080",
									"path": [
										"api",
										"student",
										"60"
									]
								}
							},
							"response": []
						},
						{
							"name": "GET student/{id}/courses",
							"request": {
								"method": "GET",
								"header": [],
								"url": {
									"raw": "localhost:8080/api/student/60/courses",
									"host": [
										"localhost"
									],
									"port": "8080",
									"path": [
										"api",
										"student",
										"60",
										"courses"
									]
								}
							},
							"response": []
						},
						{
							"name": "GET students/notEnrolledToAnyCourse",
							"request": {
								"method": "GET",
								"header": [],
								"url": {
									"raw": "localhost:8080/api/students/notEnrolledToAnyCourse",
									"host": [
										"localhost"
									],
									"port": "8080",
									"path": [
										"api",
										"students",
										"notEnrolledToAnyCourse"
									]
								}
							},
							"response": []
						},
						{
							"name": "POST student",
							"request": {
								"method": "POST",
								"header": [],
								"body": {
									"mode": "raw",
									"raw": "{\n    \"name\": \"tiago\",\n    \"email\": \"tiago@email.com\"\n}",
									"options": {
										"raw": {
											"language": "json"
										}
									}
								},
								"url": {
									"raw": "localhost:8080/api/student",
									"host": [
										"localhost"
									],
									"port": "8080",
									"path": [
										"api",
										"student"
									]
								}
							},
							"response": []
						},
						{
							"name": "PUT student/{id}",
							"request": {
								"method": "PUT",
								"header": [],
								"body": {
									"mode": "raw",
									"raw": "{\n    \"email\": \"tiagoewemail@email.com\"\n}",
									"options": {
										"raw": {
											"language": "json"
										}
									}
								},
								"url": {
									"raw": "localhost:8080/api/student/61",
									"host": [
										"localhost"
									],
									"port": "8080",
									"path": [
										"api",
										"student",
										"61"
									]
								}
							},
							"response": []
						},
						{
							"name": "PUT student/{id}/courses",
							"request": {
								"method": "PUT",
								"header": [],
								"body": {
									"mode": "raw",
									"raw": "{\n    \"courses\": [\n        \"ACE\",\n        \"Academic Approach\",\n        \"Ask a Way\",\n        \"Constant Toppers\",\n        \"Edulocity\"\n    ]\n}",
									"options": {
										"raw": {
											"language": "json"
										}
									}
								},
								"url": {
									"raw": "localhost:8080/api/student/60/courses",
									"host": [
										"localhost"
									],
									"port": "8080",
									"path": [
										"api",
										"student",
										"60",
										"courses"
									]
								}
							},
							"response": []
						},
						{
							"name": "PUT student/{id}/courses - exceeding courses limit",
							"request": {
								"method": "PUT",
								"header": [],
								"body": {
									"mode": "raw",
									"raw": "{\n    \"courses\": [\n       \"We Love Tutors\"\n    ]\n}",
									"options": {
										"raw": {
											"language": "json"
										}
									}
								},
								"url": {
									"raw": "localhost:8080/api/student/60/courses",
									"host": [
										"localhost"
									],
									"port": "8080",
									"path": [
										"api",
										"student",
										"60",
										"courses"
									]
								}
							},
							"response": []
						},
						{
							"name": "DELETE student/{id}/courses",
							"request": {
								"method": "DELETE",
								"header": [],
								"body": {
									"mode": "raw",
									"raw": "{\n    \"courses\": [\n        \"Edulocity\"\n    ]\n}",
									"options": {
										"raw": {
											"language": "json"
										}
									}
								},
								"url": {
									"raw": "localhost:8080/api/student/60/courses",
									"host": [
										"localhost"
									],
									"port": "8080",
									"path": [
										"api",
										"student",
										"60",
										"courses"
									]
								}
							},
							"response": []
						},
						{
							"name": "DELETE student{id}",
							"request": {
								"method": "DELETE",
								"header": [],
								"url": {
									"raw": "localhost:8080/api/student/61",
									"host": [
										"localhost"
									],
									"port": "8080",
									"path": [
										"api",
										"student",
										"61"
									]
								}
							},
							"response": []
						}
					]
				},
				{
					"name": "Course",
					"item": [
						{
							"name": "Errors",
							"item": [
								{
									"name": "GET course/{inexistent_id}",
									"request": {
										"method": "GET",
										"header": [],
										"url": {
											"raw": "localhost:8080/api/course/666",
											"host": [
												"localhost"
											],
											"port": "8080",
											"path": [
												"api",
												"course",
												"666"
											]
										}
									},
									"response": []
								},
								{
									"name": "GET /course/{inexisteng_id}/students",
									"request": {
										"method": "GET",
										"header": [],
										"url": {
											"raw": "localhost:8080/api/course/666/students",
											"host": [
												"localhost"
											],
											"port": "8080",
											"path": [
												"api",
												"course",
												"666",
												"students"
											]
										}
									},
									"response": []
								},
								{
									"name": "GET course invalid id",
									"request": {
										"method": "GET",
										"header": [],
										"url": {
											"raw": "localhost:8080/api/course/aaa",
											"host": [
												"localhost"
											],
											"port": "8080",
											"path": [
												"api",
												"course",
												"aaa"
											]
										}
									},
									"response": []
								},
								{
									"name": "POST course - missing name",
									"request": {
										"method": "POST",
										"header": [],
										"body": {
											"mode": "raw",
											"raw": "{\n \n}",
											"options": {
												"raw": {
													"language": "json"
												}
											}
										},
										"url": {
											"raw": "localhost:8080/api/course",
											"host": [
												"localhost"
											],
											"port": "8080",
											"path": [
												"api",
												"course"
											]
										}
									},
									"response": []
								},
								{
									"name": "POST course - without body",
									"request": {
										"method": "POST",
										"header": [],
										"body": {
											"mode": "raw",
											"raw": "",
											"options": {
												"raw": {
													"language": "json"
												}
											}
										},
										"url": {
											"raw": "localhost:8080/api/course",
											"host": [
												"localhost"
											],
											"port": "8080",
											"path": [
												"api",
												"course"
											]
										}
									},
									"response": []
								},
								{
									"name": "POST course - invalid name",
									"request": {
										"method": "POST",
										"header": [],
										"body": {
											"mode": "raw",
											"raw": "{\n    \"name\": 1a\n}",
											"options": {
												"raw": {
													"language": "json"
												}
											}
										},
										"url": {
											"raw": "localhost:8080/api/course",
											"host": [
												"localhost"
											],
											"port": "8080",
											"path": [
												"api",
												"course"
											]
										}
									},
									"response": []
								},
								{
									"name": "PUT course/{inexistent_id}",
									"request": {
										"method": "PUT",
										"header": [],
										"body": {
											"mode": "raw",
											"raw": "{ \n    \"name\": \"updated name\"\n}",
											"options": {
												"raw": {
													"language": "json"
												}
											}
										},
										"url": {
											"raw": "localhost:8080/api/course/666",
											"host": [
												"localhost"
											],
											"port": "8080",
											"path": [
												"api",
												"course",
												"666"
											]
										}
									},
									"response": []
								},
								{
									"name": "DELETE course/{inexistent_id}",
									"request": {
										"method": "DELETE",
										"header": [],
										"url": {
											"raw": "localhost:8080/api/course/666",
											"host": [
												"localhost"
											],
											"port": "8080",
											"path": [
												"api",
												"course",
												"666"
											]
										}
									},
									"response": []
								}
							]
						},
						{
							"name": "GET courses",
							"request": {
								"method": "GET",
								"header": [],
								"url": {
									"raw": "localhost:8080/api/courses",
									"host": [
										"localhost"
									],
									"port": "8080",
									"path": [
										"api",
										"courses"
									]
								}
							},
							"response": []
						},
						{
							"name": "GET courses/withoutStudents",
							"request": {
								"method": "GET",
								"header": [],
								"url": {
									"raw": "localhost:8080/api/courses/withoutStudents",
									"host": [
										"localhost"
									],
									"port": "8080",
									"path": [
										"api",
										"courses",
										"withoutStudents"
									]
								}
							},
							"response": []
						},
						{
							"name": "GET course/{id}",
							"request": {
								"method": "GET",
								"header": [],
								"url": {
									"raw": "localhost:8080/api/course/61",
									"host": [
										"localhost"
									],
									"port": "8080",
									"path": [
										"api",
										"course",
										"61"
									]
								}
							},
							"response": []
						},
						{
							"name": "GET course/{id}/students",
							"request": {
								"method": "GET",
								"header": [],
								"url": {
									"raw": "localhost:8080/api/course/34/students",
									"host": [
										"localhost"
									],
									"port": "8080",
									"path": [
										"api",
										"course",
										"34",
										"students"
									]
								}
							},
							"response": []
						},
						{
							"name": "POST course",
							"request": {
								"method": "POST",
								"header": [],
								"body": {
									"mode": "raw",
									"raw": "{\n    \"name\": \"Brand new course\"\n}",
									"options": {
										"raw": {
											"language": "json"
										}
									}
								},
								"url": {
									"raw": "localhost:8080/api/course",
									"host": [
										"localhost"
									],
									"port": "8080",
									"path": [
										"api",
										"course"
									]
								}
							},
							"response": []
						},
						{
							"name": "PUT course/{id}",
							"request": {
								"method": "PUT",
								"header": [],
								"body": {
									"mode": "raw",
									"raw": "{\n    \"name\": \"Brand new course by Tiago Melo\"\n}",
									"options": {
										"raw": {
											"language": "json"
										}
									}
								},
								"url": {
									"raw": "localhost:8080/api/course/61",
									"host": [
										"localhost"
									],
									"port": "8080",
									"path": [
										"api",
										"course",
										"61"
									]
								}
							},
							"response": []
						},
						{
							"name": "PUT student/59/courses - \"ACE\" course, limit of 2 total students",
							"request": {
								"method": "PUT",
								"header": [],
								"body": {
									"mode": "raw",
									"raw": "{\n    \"courses\": [\n        \"ACE\"\n    ]\n}",
									"options": {
										"raw": {
											"language": "json"
										}
									}
								},
								"url": {
									"raw": "localhost:8080/api/student/59/courses",
									"host": [
										"localhost"
									],
									"port": "8080",
									"path": [
										"api",
										"student",
										"59",
										"courses"
									]
								}
							},
							"response": []
						},
						{
							"name": "PUT student/60/courses - \"ACE\" course, limit of 2 total students",
							"request": {
								"method": "PUT",
								"header": [],
								"body": {
									"mode": "raw",
									"raw": "{\n    \"courses\": [\n        \"ACE\"\n    ]\n}",
									"options": {
										"raw": {
											"language": "json"
										}
									}
								},
								"url": {
									"raw": "localhost:8080/api/student/60/courses",
									"host": [
										"localhost"
									],
									"port": "8080",
									"path": [
										"api",
										"student",
										"60",
										"courses"
									]
								}
							},
							"response": []
						},
						{
							"name": "PUT student/58/courses - \"ACE\" course, limit of 2 total students",
							"request": {
								"method": "PUT",
								"header": [],
								"body": {
									"mode": "raw",
									"raw": "{\n    \"courses\": [\n        \"ACE\"\n    ]\n}",
									"options": {
										"raw": {
											"language": "json"
										}
									}
								},
								"url": {
									"raw": "localhost:8080/api/student/58/courses",
									"host": [
										"localhost"
									],
									"port": "8080",
									"path": [
										"api",
										"student",
										"58",
										"courses"
									]
								}
							},
							"response": []
						},
						{
							"name": "DELETE course{id}",
							"request": {
								"method": "DELETE",
								"header": [],
								"url": {
									"raw": "localhost:8080/api/course/61",
									"host": [
										"localhost"
									],
									"port": "8080",
									"path": [
										"api",
										"course",
										"61"
									]
								}
							},
							"response": []
						}
					]
				}
			]
		}
	]
}